{
  "title": "Merchandise Description",
  "content": [
    {
      "type": "base",
      "content": "Below is the information for all of our merchandise as well as the appropriate link to the item’s size guide. Tailori has no affiliation to any of these brands and is in no way related to them."
    },
    {
      "type": "subheader",
      "content": "T-Shirt"
    },
    {
      "type": "base",
      "content": "Our default merchandise for our T-Shirts is the Next Level Fitted Crew"
    },
    {
      "type": "base",
      "content": "100% combed cotton jersey 4.3-oz. 32 singles for extreme softness. An amazing style made by Next Level, instantly loved by anyone who wears this fabric."
    },
    {
      "type": "base",
      "content": "When using Sublimation as our printing method we use Gildan Performance T-Shirt"
    },
    {
      "type": "base",
      "content": "100% Polyster shirt 5oz. This is a modern classic fit with Anti-microbial properties, available in a plethora of colors."
    },
    {
      "type": "uri",
      "external": "https://www.nextlevelapparel.com/mens-cotton-crew-7336.html",
      "content": "Next Level Apparel Size Guide"
    },
    {
      "type": "uri",
      "external": "https://www.mygildan.com/store/us/browse/productDetailsPage.jsp?_locale=en_US&productId=42000",
      "content": "Gildan Performance Size Guide"
    }
  ],
  "footer": [
    "If you have any existing questions, or suggestions as to how we can make this document better feel free to reach us at",
    "support@tailorii.app"
  ]
}
