{
  "title": "Pricing Algorithm",
  "content": [
    {
      "type": "base",
      "content": "Tailori’s pricing algorithm consists of 3 parts. The first part is the base price, which to us is known as the Cost of Production. The second part consists of the royalty set by the brand, which we know as the payout, this part is set by the brand owner. The third part to any item’s price is the share that we as a platform keep. Any item's price will be the sum of these three parts. With this said, do keep in mind that if you’re a brand and you set your royalty too high, you do put your brand's image at risk by your buyers discretion for overpricing your merchandise. Tailori does not condemn “hype” brands, if the way you plan to lead your brand is by creating hype products by all means do so. This document is available to our brands but also to our users, so that our buyers are well aware of how an item’s price is affected by the royalty a brand asks for."
    }
  ],
  "footer": [
    "If you have any existing questions, or suggestions as to how we can make this document better feel free to reach us at",
    "support@tailorii.app"
  ]
}
